<svg width="63" height="63" viewBox="0 0 63 63" fill="none" xmlns="http://www.w3.org/2000/svg">
    <path d="M7.11284 30.4839C5.43216 30.4839 4.06445 31.8516 4.06445 33.5323C4.06445 35.2129 5.43216 36.5807 7.11284 36.5807C8.79352 36.5807 10.1612 35.2129 10.1612 33.5323C10.1612 31.8516 8.79352 30.4839 7.11284 30.4839ZM7.11284 34.5484C6.55295 34.5484 6.09671 34.0932 6.09671 33.5323C6.09671 32.9714 6.55295 32.5161 7.11284 32.5161C7.67273 32.5161 8.12897 32.9714 8.12897 33.5323C8.12897 34.0932 7.67273 34.5484 7.11284 34.5484Z" fill="#02133C"/>
    <path d="M59.9516 0H56.9032H36.5806H21.7868C20.473 0 19.3105 0.83729 18.8949 2.0851L18.5738 3.04839H15.2419C13.5613 3.04839 12.1935 4.4161 12.1935 6.09677V7.41266C9.25897 8.28958 7.1129 11.0098 7.1129 14.2258C7.1129 16.3485 8.05181 18.2517 9.53129 19.5554C7.25821 21.2849 5.69744 23.8414 5.23713 26.6785C2.22329 27.5046 0 30.2603 0 33.5323C0 37.4535 3.19065 40.6452 7.1129 40.6452H8.12903V38.6129H7.1129C4.31144 38.6129 2.03226 36.3337 2.03226 33.5323C2.03226 30.7308 4.31144 28.4516 7.1129 28.4516C8.9206 28.4516 10.6064 29.4251 11.5138 30.9909L13.2717 29.9728C13.169 29.796 13.0501 29.6334 12.9343 29.4677H14.2258V21.3387C18.1481 21.3387 21.3387 18.1481 21.3387 14.2258C21.3387 10.3035 18.1481 7.1129 14.2258 7.1129V6.09677C14.2258 5.53689 14.682 5.08065 15.2419 5.08065H20.0391L20.8235 2.72729C20.9617 2.31169 21.3489 2.03226 21.7868 2.03226H22.4575C22.93 4.34802 24.9825 6.09677 27.4355 6.09677C29.8884 6.09677 31.941 4.34802 32.4135 2.03226H36.5806V13.2361C35.7291 12.5909 34.6805 12.1935 33.5323 12.1935C30.7308 12.1935 28.4516 14.4727 28.4516 17.2742C28.4516 20.0757 30.7308 22.3548 33.5323 22.3548C35.9852 22.3548 38.0378 20.6061 38.5103 18.2903H54.871V29.4677H41.6613V31.5H56.9032V18.2903V16.2581H59.9516C61.6323 16.2581 63 14.8904 63 13.2097V3.04839C63 1.36771 61.6323 0 59.9516 0ZM12.1935 28.5614C10.9224 27.2709 9.18581 26.4945 7.34153 26.4346C7.87602 24.0934 9.33315 22.0287 11.3654 20.7331C11.6326 20.851 11.91 20.9475 12.1935 21.0329V28.5614ZM19.3065 14.2258C19.3065 17.0273 17.0273 19.3065 14.2258 19.3065C13.1833 19.3065 12.2149 18.9894 11.4071 18.4488L11.3796 18.3919C11.3695 18.397 11.3613 18.4031 11.3512 18.4082C10.0211 17.4906 9.14516 15.9603 9.14516 14.2258C9.14516 11.4243 11.4243 9.14516 14.2258 9.14516C17.0273 9.14516 19.3065 11.4243 19.3065 14.2258ZM27.4355 4.06452C26.1125 4.06452 24.9947 3.21198 24.5741 2.03226H30.2959C29.8762 3.21198 28.7585 4.06452 27.4355 4.06452ZM33.5323 20.3226C31.8516 20.3226 30.4839 18.9549 30.4839 17.2742C30.4839 15.5935 31.8516 14.2258 33.5323 14.2258C35.2129 14.2258 36.5806 15.5935 36.5806 17.2742C36.5806 18.9549 35.2129 20.3226 33.5323 20.3226ZM48.7742 16.2581H38.6129V2.03226H41.6877C41.0425 2.88377 40.6452 3.93242 40.6452 5.08065C40.6452 7.88211 42.9243 10.1613 45.7258 10.1613C46.874 10.1613 47.9227 9.76398 48.7742 9.11874V16.2581ZM45.7258 8.12903C44.0451 8.12903 42.6774 6.76132 42.6774 5.08065C42.6774 3.39997 44.0451 2.03226 45.7258 2.03226C47.4065 2.03226 48.7742 3.39997 48.7742 5.08065C48.7742 6.76132 47.4065 8.12903 45.7258 8.12903ZM60.9677 13.2097C60.9677 13.7696 60.5115 14.2258 59.9516 14.2258H56.9032V12.1935H54.871V14.2258V16.2581H50.8064V5.08065C50.8064 3.93242 50.4091 2.88377 49.7639 2.03226H54.871V10.1613H56.9032V2.03226H59.9516C60.5115 2.03226 60.9677 2.4885 60.9677 3.04839V13.2097Z" fill="#02133C"/>
    <path d="M11.1775 14.2258C11.1775 15.9064 12.5452 17.2741 14.2259 17.2741C15.9066 17.2741 17.2743 15.9064 17.2743 14.2258C17.2743 12.5451 15.9066 11.1774 14.2259 11.1774C12.5452 11.1774 11.1775 12.5451 11.1775 14.2258ZM15.242 14.2258C15.242 14.7856 14.7858 15.2419 14.2259 15.2419C13.666 15.2419 13.2097 14.7856 13.2097 14.2258C13.2097 13.6659 13.666 13.2096 14.2259 13.2096C14.7858 13.2096 15.242 13.6659 15.242 14.2258Z" fill="#02133C"/>
    <path d="M31.5001 63H23.3711V58.4224C21.9028 58.0444 20.4985 57.4611 19.1816 56.6807L15.9402 59.9212L10.1919 54.1729L13.4323 50.9315C12.652 49.6146 12.0687 48.2103 11.6907 46.742H7.11304V38.6129H11.6907C12.0687 37.1446 12.652 35.7403 13.4323 34.4234L10.1919 31.182L15.9402 25.4337L19.1816 28.6742C20.4985 27.8938 21.9028 27.3105 23.3711 26.9325V22.3549H31.5001V26.9325C32.9684 27.3105 34.3727 27.8938 35.6896 28.6742L38.9311 25.4337L44.6793 31.182L41.4389 34.4234C42.2193 35.7403 42.8025 37.1446 43.1805 38.6129H47.7582V46.742H43.1805C42.8025 48.2103 42.2193 49.6146 41.4389 50.9315L44.6793 54.1729L38.9311 59.9212L35.6896 56.6807C34.3727 57.4611 32.9684 58.0444 31.5001 58.4224V63Z" fill="#C40B0B"/>
    <path d="M27.4357 52.8387C21.8328 52.8387 17.2744 48.2803 17.2744 42.6774C17.2744 37.0745 21.8328 32.5161 27.4357 32.5161C33.0386 32.5161 37.597 37.0745 37.597 42.6774C37.597 45.3773 36.5494 47.9196 34.6462 49.836L33.2043 48.4053C34.7264 46.871 35.5647 44.8377 35.5647 42.6774C35.5647 38.1953 31.9178 34.5484 27.4357 34.5484C22.9536 34.5484 19.3067 38.1953 19.3067 42.6774C19.3067 47.1595 22.9536 50.8064 27.4357 50.8064C28.9782 50.8064 30.479 50.3725 31.7756 49.5525L32.8618 51.2688C31.2401 52.2961 29.3633 52.8387 27.4357 52.8387Z" fill="#02133C"/>
    <path d="M27.4356 48.7741C24.0733 48.7741 21.3389 46.0397 21.3389 42.6773C21.3389 39.315 24.0733 36.5806 27.4356 36.5806C30.798 36.5806 33.5324 39.315 33.5324 42.6773C33.5324 46.0397 30.798 48.7741 27.4356 48.7741ZM27.4356 38.6128C25.1941 38.6128 23.3711 40.4358 23.3711 42.6773C23.3711 44.9189 25.1941 46.7419 27.4356 46.7419C29.6772 46.7419 31.5002 44.9189 31.5002 42.6773C31.5002 40.4358 29.6772 38.6128 27.4356 38.6128Z" fill="#02133C"/>
</svg>
